<define-tag pagetitle>DLA-1103-1 bluez</define-tag>
<define-tag report_date>2017-9-21</define-tag>
<define-tag secrefs>CVE-2017-1000250 Bug#875633</define-tag>
<define-tag packages>bluez</define-tag>
<define-tag isvulnerable>yes</define-tag>
<define-tag fixed>yes</define-tag>
<define-tag fixed-section>no</define-tag>

#use wml::debian::security

