<define-tag pagetitle>DLA-963-1 exiv2</define-tag>
<define-tag report_date>2017-5-29</define-tag>
<define-tag secrefs>CVE-2017-9239 Bug#863410</define-tag>
<define-tag packages>exiv2</define-tag>
<define-tag isvulnerable>yes</define-tag>
<define-tag fixed>yes</define-tag>
<define-tag fixed-section>no</define-tag>

#use wml::debian::security

