<define-tag pagetitle>DLA-1573-1 firmware-nonfree</define-tag>
<define-tag report_date>2018-11-13</define-tag>
<define-tag secrefs>CVE-2016-0801 CVE-2017-0561 CVE-2017-9417 CVE-2017-13077 CVE-2017-13078 CVE-2017-13079 CVE-2017-13080 CVE-2017-1308 Bug#620066 Bug#724970 Bug#769633 Bug#774914 Bug#790061 Bug#793544 Bug#793874 Bug#795303</define-tag>
<define-tag packages>firmware-nonfree</define-tag>
<define-tag isvulnerable>yes</define-tag>
<define-tag fixed>yes</define-tag>
<define-tag fixed-section>no</define-tag>

#use wml::debian::security

