<define-tag pagetitle>DLA-653-1 qemu-kvm</define-tag>
<define-tag report_date>2016-10-11</define-tag>
<define-tag secrefs>CVE-2016-7161 CVE-2016-7170 CVE-2016-7908</define-tag>
<define-tag packages>qemu-kvm</define-tag>
<define-tag isvulnerable>yes</define-tag>
<define-tag fixed>yes</define-tag>
<define-tag fixed-section>no</define-tag>

#use wml::debian::security

